SCOPE,ZONE,POD,CLUSTER,NAME,PROVIDER,URL,TAG
cluster,Osaka01,Osaka01-Pod02,10.191.0.90/vmosaka01/ckkoskc-pEbsv09b,ckkoskc-pEbsv09bFast11,DefaultPrimary,vmfs://dummy/vmosaka01/ckkoskc-pEbsv09bFast11,tmpPure_SYSTEM_DISK
cluster,Osaka01,Osaka01-Pod02,10.191.0.90/vmosaka01/ckkoskc-pEbsv09b,ckkoskc-pEbsv09bFast12,DefaultPrimary,vmfs://dummy/vmosaka01/ckkoskc-pEbsv09bFast12,tmpPure_SYSTEM_DISK
cluster,Osaka01,Osaka01-Pod02,10.191.0.90/vmosaka01/ckkoskc-pEbsv09b,ckkoskc-pEbsv09bFast13,DefaultPrimary,vmfs://dummy/vmosaka01/ckkoskc-pEbsv09bFast13,tmpPure_SYSTEM_DISK
cluster,Osaka01,Osaka01-Pod02,10.191.0.90/vmosaka01/ckkoskc-pEbsv09b,ckkoskc-pEbsv09bFast14,DefaultPrimary,vmfs://dummy/vmosaka01/ckkoskc-pEbsv09bFast14,tmpPure_SYSTEM_DISK
cluster,Osaka01,Osaka01-Pod02,10.191.0.90/vmosaka01/ckkoskc-pEbsv09b,ckkoskc-pEbsv09bFast15,DefaultPrimary,vmfs://dummy/vmosaka01/ckkoskc-pEbsv09bFast15,tmpPure_SYSTEM_DISK
cluster,Osaka01,Osaka01-Pod02,10.191.0.90/vmosaka01/ckkoskc-pEbsv09b,ckkoskc-pEbsv09bFast16,DefaultPrimary,vmfs://dummy/vmosaka01/ckkoskc-pEbsv09bFast16,tmpPure_SYSTEM_DISK
cluster,Osaka01,Osaka01-Pod02,10.191.0.90/vmosaka01/ckkoskc-pEbsv09b,ckkoskc-pEbsv09bFast17,DefaultPrimary,vmfs://dummy/vmosaka01/ckkoskc-pEbsv09bFast17,tmpPure_SYSTEM_DISK
cluster,Osaka01,Osaka01-Pod02,10.191.0.90/vmosaka01/ckkoskc-pEbsv09b,ckkoskc-pEbsv09bFast18,DefaultPrimary,vmfs://dummy/vmosaka01/ckkoskc-pEbsv09bFast18,tmpPure_SYSTEM_DISK
cluster,Osaka01,Osaka01-Pod02,10.191.0.90/vmosaka01/ckkoskc-pEbsv09b,ckkoskc-pEbsv09bFast19,DefaultPrimary,vmfs://dummy/vmosaka01/ckkoskc-pEbsv09bFast19,tmpPure_SYSTEM_DISK
cluster,Osaka01,Osaka01-Pod02,10.191.0.90/vmosaka01/ckkoskc-pEbsv09b,ckkoskc-pEbsv09bMiddle11,DefaultPrimary,vmfs://dummy/vmosaka01/ckkoskc-pEbsv09bMiddle11,tmpPure_DATA_DISK
cluster,Osaka01,Osaka01-Pod02,10.191.0.90/vmosaka01/ckkoskc-pEbsv09b,ckkoskc-pEbsv09bMiddle12,DefaultPrimary,vmfs://dummy/vmosaka01/ckkoskc-pEbsv09bMiddle12,tmpPure_DATA_DISK
cluster,Osaka01,Osaka01-Pod02,10.191.0.90/vmosaka01/ckkoskc-pEbsv09b,ckkoskc-pEbsv09bMiddle13,DefaultPrimary,vmfs://dummy/vmosaka01/ckkoskc-pEbsv09bMiddle13,tmpPure_DATA_DISK
cluster,Osaka01,Osaka01-Pod02,10.191.0.90/vmosaka01/ckkoskc-pEbsv09b,ckkoskc-pEbsv09bMiddle14,DefaultPrimary,vmfs://dummy/vmosaka01/ckkoskc-pEbsv09bMiddle14,tmpPure_DATA_DISK
cluster,Osaka01,Osaka01-Pod02,10.191.0.90/vmosaka01/ckkoskc-pEbsv09b,ckkoskc-pEbsv09bMiddle15,DefaultPrimary,vmfs://dummy/vmosaka01/ckkoskc-pEbsv09bMiddle15,tmpPure_DATA_DISK
cluster,Osaka01,Osaka01-Pod02,10.191.0.90/vmosaka01/ckkoskc-pEbsv09b,ckkoskc-pEbsv09bMiddle16,DefaultPrimary,vmfs://dummy/vmosaka01/ckkoskc-pEbsv09bMiddle16,tmpPure_DATA_DISK
cluster,Osaka01,Osaka01-Pod02,10.191.0.90/vmosaka01/ckkoskc-pEbsv09b,ckkoskc-pEbsv09bMiddle17,DefaultPrimary,vmfs://dummy/vmosaka01/ckkoskc-pEbsv09bMiddle17,tmpPure_DATA_DISK
cluster,Osaka01,Osaka01-Pod02,10.191.0.90/vmosaka01/ckkoskc-pEbsv09b,ckkoskc-pEbsv09bMiddle18,DefaultPrimary,vmfs://dummy/vmosaka01/ckkoskc-pEbsv09bMiddle18,tmpPure_DATA_DISK
cluster,Osaka01,Osaka01-Pod02,10.191.0.90/vmosaka01/ckkoskc-pEbsv09b,ckkoskc-pEbsv09bMiddle19,DefaultPrimary,vmfs://dummy/vmosaka01/ckkoskc-pEbsv09bMiddle19,tmpPure_DATA_DISK
cluster,Osaka01,Osaka01-Pod02,10.191.0.90/vmosaka01/ckkoskc-pEbsv12a,ckkoskc-pEbsv12aFast11,DefaultPrimary,vmfs://dummy/vmosaka01/ckkoskc-pEbsv12aFast11,tmpPure_SYSTEM_DISK
cluster,Osaka01,Osaka01-Pod02,10.191.0.90/vmosaka01/ckkoskc-pEbsv12a,ckkoskc-pEbsv12aFast12,DefaultPrimary,vmfs://dummy/vmosaka01/ckkoskc-pEbsv12aFast12,tmpPure_SYSTEM_DISK
cluster,Osaka01,Osaka01-Pod02,10.191.0.90/vmosaka01/ckkoskc-pEbsv12a,ckkoskc-pEbsv12aFast13,DefaultPrimary,vmfs://dummy/vmosaka01/ckkoskc-pEbsv12aFast13,tmpPure_SYSTEM_DISK
cluster,Osaka01,Osaka01-Pod02,10.191.0.90/vmosaka01/ckkoskc-pEbsv12a,ckkoskc-pEbsv12aFast14,DefaultPrimary,vmfs://dummy/vmosaka01/ckkoskc-pEbsv12aFast14,tmpPure_SYSTEM_DISK
cluster,Osaka01,Osaka01-Pod02,10.191.0.90/vmosaka01/ckkoskc-pEbsv12a,ckkoskc-pEbsv12aFast15,DefaultPrimary,vmfs://dummy/vmosaka01/ckkoskc-pEbsv12aFast15,tmpPure_SYSTEM_DISK
cluster,Osaka01,Osaka01-Pod02,10.191.0.90/vmosaka01/ckkoskc-pEbsv12a,ckkoskc-pEbsv12aFast16,DefaultPrimary,vmfs://dummy/vmosaka01/ckkoskc-pEbsv12aFast16,tmpPure_SYSTEM_DISK
cluster,Osaka01,Osaka01-Pod02,10.191.0.90/vmosaka01/ckkoskc-pEbsv12a,ckkoskc-pEbsv12aFast17,DefaultPrimary,vmfs://dummy/vmosaka01/ckkoskc-pEbsv12aFast17,tmpPure_SYSTEM_DISK
cluster,Osaka01,Osaka01-Pod02,10.191.0.90/vmosaka01/ckkoskc-pEbsv12a,ckkoskc-pEbsv12aFast18,DefaultPrimary,vmfs://dummy/vmosaka01/ckkoskc-pEbsv12aFast18,tmpPure_SYSTEM_DISK
cluster,Osaka01,Osaka01-Pod02,10.191.0.90/vmosaka01/ckkoskc-pEbsv12a,ckkoskc-pEbsv12aFast19,DefaultPrimary,vmfs://dummy/vmosaka01/ckkoskc-pEbsv12aFast19,tmpPure_SYSTEM_DISK
cluster,Osaka01,Osaka01-Pod02,10.191.0.90/vmosaka01/ckkoskc-pEbsv12a,ckkoskc-pEbsv12aMiddle11,DefaultPrimary,vmfs://dummy/vmosaka01/ckkoskc-pEbsv12aMiddle11,tmpPure_DATA_DISK
cluster,Osaka01,Osaka01-Pod02,10.191.0.90/vmosaka01/ckkoskc-pEbsv12a,ckkoskc-pEbsv12aMiddle12,DefaultPrimary,vmfs://dummy/vmosaka01/ckkoskc-pEbsv12aMiddle12,tmpPure_DATA_DISK
cluster,Osaka01,Osaka01-Pod02,10.191.0.90/vmosaka01/ckkoskc-pEbsv12a,ckkoskc-pEbsv12aMiddle13,DefaultPrimary,vmfs://dummy/vmosaka01/ckkoskc-pEbsv12aMiddle13,tmpPure_DATA_DISK
cluster,Osaka01,Osaka01-Pod02,10.191.0.90/vmosaka01/ckkoskc-pEbsv12a,ckkoskc-pEbsv12aMiddle14,DefaultPrimary,vmfs://dummy/vmosaka01/ckkoskc-pEbsv12aMiddle14,tmpPure_DATA_DISK
cluster,Osaka01,Osaka01-Pod02,10.191.0.90/vmosaka01/ckkoskc-pEbsv12a,ckkoskc-pEbsv12aMiddle15,DefaultPrimary,vmfs://dummy/vmosaka01/ckkoskc-pEbsv12aMiddle15,tmpPure_DATA_DISK
cluster,Osaka01,Osaka01-Pod02,10.191.0.90/vmosaka01/ckkoskc-pEbsv12a,ckkoskc-pEbsv12aMiddle16,DefaultPrimary,vmfs://dummy/vmosaka01/ckkoskc-pEbsv12aMiddle16,tmpPure_DATA_DISK
cluster,Osaka01,Osaka01-Pod02,10.191.0.90/vmosaka01/ckkoskc-pEbsv12a,ckkoskc-pEbsv12aMiddle17,DefaultPrimary,vmfs://dummy/vmosaka01/ckkoskc-pEbsv12aMiddle17,tmpPure_DATA_DISK
cluster,Osaka01,Osaka01-Pod02,10.191.0.90/vmosaka01/ckkoskc-pEbsv12a,ckkoskc-pEbsv12aMiddle18,DefaultPrimary,vmfs://dummy/vmosaka01/ckkoskc-pEbsv12aMiddle18,tmpPure_DATA_DISK
cluster,Osaka01,Osaka01-Pod02,10.191.0.90/vmosaka01/ckkoskc-pEbsv12a,ckkoskc-pEbsv12aMiddle19,DefaultPrimary,vmfs://dummy/vmosaka01/ckkoskc-pEbsv12aMiddle19,tmpPure_DATA_DISK
