SCOPE,ZONE,POD,CLUSTER,NAME,PROVIDER,URL,TAG
cluster,Osaka01,Osaka01-Pod02,10.191.0.90/vmosaka01/ckkoskc-pEbsv06b,ckkoskc-pEbsv06bFast11,DefaultPrimary,vmfs://dummy/vmosaka01/ckkoskc-pEbsv06bFast11,tmpPure_SYSTEM_DISK
cluster,Osaka01,Osaka01-Pod02,10.191.0.90/vmosaka01/ckkoskc-pEbsv06b,ckkoskc-pEbsv06bFast12,DefaultPrimary,vmfs://dummy/vmosaka01/ckkoskc-pEbsv06bFast12,tmpPure_SYSTEM_DISK
cluster,Osaka01,Osaka01-Pod02,10.191.0.90/vmosaka01/ckkoskc-pEbsv06b,ckkoskc-pEbsv06bFast13,DefaultPrimary,vmfs://dummy/vmosaka01/ckkoskc-pEbsv06bFast13,tmpPure_SYSTEM_DISK
cluster,Osaka01,Osaka01-Pod02,10.191.0.90/vmosaka01/ckkoskc-pEbsv06b,ckkoskc-pEbsv06bFast14,DefaultPrimary,vmfs://dummy/vmosaka01/ckkoskc-pEbsv06bFast14,tmpPure_SYSTEM_DISK
cluster,Osaka01,Osaka01-Pod02,10.191.0.90/vmosaka01/ckkoskc-pEbsv06b,ckkoskc-pEbsv06bFast15,DefaultPrimary,vmfs://dummy/vmosaka01/ckkoskc-pEbsv06bFast15,tmpPure_SYSTEM_DISK
cluster,Osaka01,Osaka01-Pod02,10.191.0.90/vmosaka01/ckkoskc-pEbsv06b,ckkoskc-pEbsv06bFast16,DefaultPrimary,vmfs://dummy/vmosaka01/ckkoskc-pEbsv06bFast16,tmpPure_SYSTEM_DISK
cluster,Osaka01,Osaka01-Pod02,10.191.0.90/vmosaka01/ckkoskc-pEbsv06b,ckkoskc-pEbsv06bFast17,DefaultPrimary,vmfs://dummy/vmosaka01/ckkoskc-pEbsv06bFast17,tmpPure_SYSTEM_DISK
cluster,Osaka01,Osaka01-Pod02,10.191.0.90/vmosaka01/ckkoskc-pEbsv06b,ckkoskc-pEbsv06bFast18,DefaultPrimary,vmfs://dummy/vmosaka01/ckkoskc-pEbsv06bFast18,tmpPure_SYSTEM_DISK
cluster,Osaka01,Osaka01-Pod02,10.191.0.90/vmosaka01/ckkoskc-pEbsv06b,ckkoskc-pEbsv06bFast19,DefaultPrimary,vmfs://dummy/vmosaka01/ckkoskc-pEbsv06bFast19,tmpPure_SYSTEM_DISK
cluster,Osaka01,Osaka01-Pod02,10.191.0.90/vmosaka01/ckkoskc-pEbsv06b,ckkoskc-pEbsv06bMiddle11,DefaultPrimary,vmfs://dummy/vmosaka01/ckkoskc-pEbsv06bMiddle11,tmpPure_DATA_DISK
cluster,Osaka01,Osaka01-Pod02,10.191.0.90/vmosaka01/ckkoskc-pEbsv06b,ckkoskc-pEbsv06bMiddle12,DefaultPrimary,vmfs://dummy/vmosaka01/ckkoskc-pEbsv06bMiddle12,tmpPure_DATA_DISK
cluster,Osaka01,Osaka01-Pod02,10.191.0.90/vmosaka01/ckkoskc-pEbsv06b,ckkoskc-pEbsv06bMiddle13,DefaultPrimary,vmfs://dummy/vmosaka01/ckkoskc-pEbsv06bMiddle13,tmpPure_DATA_DISK
cluster,Osaka01,Osaka01-Pod02,10.191.0.90/vmosaka01/ckkoskc-pEbsv06b,ckkoskc-pEbsv06bMiddle14,DefaultPrimary,vmfs://dummy/vmosaka01/ckkoskc-pEbsv06bMiddle14,tmpPure_DATA_DISK
cluster,Osaka01,Osaka01-Pod02,10.191.0.90/vmosaka01/ckkoskc-pEbsv06b,ckkoskc-pEbsv06bMiddle15,DefaultPrimary,vmfs://dummy/vmosaka01/ckkoskc-pEbsv06bMiddle15,tmpPure_DATA_DISK
cluster,Osaka01,Osaka01-Pod02,10.191.0.90/vmosaka01/ckkoskc-pEbsv06b,ckkoskc-pEbsv06bMiddle16,DefaultPrimary,vmfs://dummy/vmosaka01/ckkoskc-pEbsv06bMiddle16,tmpPure_DATA_DISK
cluster,Osaka01,Osaka01-Pod02,10.191.0.90/vmosaka01/ckkoskc-pEbsv06b,ckkoskc-pEbsv06bMiddle17,DefaultPrimary,vmfs://dummy/vmosaka01/ckkoskc-pEbsv06bMiddle17,tmpPure_DATA_DISK
cluster,Osaka01,Osaka01-Pod02,10.191.0.90/vmosaka01/ckkoskc-pEbsv06b,ckkoskc-pEbsv06bMiddle18,DefaultPrimary,vmfs://dummy/vmosaka01/ckkoskc-pEbsv06bMiddle18,tmpPure_DATA_DISK
cluster,Osaka01,Osaka01-Pod02,10.191.0.90/vmosaka01/ckkoskc-pEbsv06b,ckkoskc-pEbsv06bMiddle19,DefaultPrimary,vmfs://dummy/vmosaka01/ckkoskc-pEbsv06bMiddle19,tmpPure_DATA_DISK
cluster,Osaka01,Osaka01-Pod02,10.191.0.90/vmosaka01/ckkoskc-pEbsv09a,ckkoskc-pEbsv09aFast11,DefaultPrimary,vmfs://dummy/vmosaka01/ckkoskc-pEbsv09aFast11,tmpPure_SYSTEM_DISK
cluster,Osaka01,Osaka01-Pod02,10.191.0.90/vmosaka01/ckkoskc-pEbsv09a,ckkoskc-pEbsv09aFast12,DefaultPrimary,vmfs://dummy/vmosaka01/ckkoskc-pEbsv09aFast12,tmpPure_SYSTEM_DISK
cluster,Osaka01,Osaka01-Pod02,10.191.0.90/vmosaka01/ckkoskc-pEbsv09a,ckkoskc-pEbsv09aFast13,DefaultPrimary,vmfs://dummy/vmosaka01/ckkoskc-pEbsv09aFast13,tmpPure_SYSTEM_DISK
cluster,Osaka01,Osaka01-Pod02,10.191.0.90/vmosaka01/ckkoskc-pEbsv09a,ckkoskc-pEbsv09aFast14,DefaultPrimary,vmfs://dummy/vmosaka01/ckkoskc-pEbsv09aFast14,tmpPure_SYSTEM_DISK
cluster,Osaka01,Osaka01-Pod02,10.191.0.90/vmosaka01/ckkoskc-pEbsv09a,ckkoskc-pEbsv09aFast15,DefaultPrimary,vmfs://dummy/vmosaka01/ckkoskc-pEbsv09aFast15,tmpPure_SYSTEM_DISK
cluster,Osaka01,Osaka01-Pod02,10.191.0.90/vmosaka01/ckkoskc-pEbsv09a,ckkoskc-pEbsv09aFast16,DefaultPrimary,vmfs://dummy/vmosaka01/ckkoskc-pEbsv09aFast16,tmpPure_SYSTEM_DISK
cluster,Osaka01,Osaka01-Pod02,10.191.0.90/vmosaka01/ckkoskc-pEbsv09a,ckkoskc-pEbsv09aFast17,DefaultPrimary,vmfs://dummy/vmosaka01/ckkoskc-pEbsv09aFast17,tmpPure_SYSTEM_DISK
cluster,Osaka01,Osaka01-Pod02,10.191.0.90/vmosaka01/ckkoskc-pEbsv09a,ckkoskc-pEbsv09aFast18,DefaultPrimary,vmfs://dummy/vmosaka01/ckkoskc-pEbsv09aFast18,tmpPure_SYSTEM_DISK
cluster,Osaka01,Osaka01-Pod02,10.191.0.90/vmosaka01/ckkoskc-pEbsv09a,ckkoskc-pEbsv09aFast19,DefaultPrimary,vmfs://dummy/vmosaka01/ckkoskc-pEbsv09aFast19,tmpPure_SYSTEM_DISK
cluster,Osaka01,Osaka01-Pod02,10.191.0.90/vmosaka01/ckkoskc-pEbsv09a,ckkoskc-pEbsv09aMiddle11,DefaultPrimary,vmfs://dummy/vmosaka01/ckkoskc-pEbsv09aMiddle11,tmpPure_DATA_DISK
cluster,Osaka01,Osaka01-Pod02,10.191.0.90/vmosaka01/ckkoskc-pEbsv09a,ckkoskc-pEbsv09aMiddle12,DefaultPrimary,vmfs://dummy/vmosaka01/ckkoskc-pEbsv09aMiddle12,tmpPure_DATA_DISK
cluster,Osaka01,Osaka01-Pod02,10.191.0.90/vmosaka01/ckkoskc-pEbsv09a,ckkoskc-pEbsv09aMiddle13,DefaultPrimary,vmfs://dummy/vmosaka01/ckkoskc-pEbsv09aMiddle13,tmpPure_DATA_DISK
cluster,Osaka01,Osaka01-Pod02,10.191.0.90/vmosaka01/ckkoskc-pEbsv09a,ckkoskc-pEbsv09aMiddle14,DefaultPrimary,vmfs://dummy/vmosaka01/ckkoskc-pEbsv09aMiddle14,tmpPure_DATA_DISK
cluster,Osaka01,Osaka01-Pod02,10.191.0.90/vmosaka01/ckkoskc-pEbsv09a,ckkoskc-pEbsv09aMiddle15,DefaultPrimary,vmfs://dummy/vmosaka01/ckkoskc-pEbsv09aMiddle15,tmpPure_DATA_DISK
cluster,Osaka01,Osaka01-Pod02,10.191.0.90/vmosaka01/ckkoskc-pEbsv09a,ckkoskc-pEbsv09aMiddle16,DefaultPrimary,vmfs://dummy/vmosaka01/ckkoskc-pEbsv09aMiddle16,tmpPure_DATA_DISK
cluster,Osaka01,Osaka01-Pod02,10.191.0.90/vmosaka01/ckkoskc-pEbsv09a,ckkoskc-pEbsv09aMiddle17,DefaultPrimary,vmfs://dummy/vmosaka01/ckkoskc-pEbsv09aMiddle17,tmpPure_DATA_DISK
cluster,Osaka01,Osaka01-Pod02,10.191.0.90/vmosaka01/ckkoskc-pEbsv09a,ckkoskc-pEbsv09aMiddle18,DefaultPrimary,vmfs://dummy/vmosaka01/ckkoskc-pEbsv09aMiddle18,tmpPure_DATA_DISK
cluster,Osaka01,Osaka01-Pod02,10.191.0.90/vmosaka01/ckkoskc-pEbsv09a,ckkoskc-pEbsv09aMiddle19,DefaultPrimary,vmfs://dummy/vmosaka01/ckkoskc-pEbsv09aMiddle19,tmpPure_DATA_DISK
