SCOPE,ZONE,POD,CLUSTER,NAME,PROVIDER,URL,TAG
cluster,jp-east02,jp-east02-Pod02,10.193.3.250/vmjp-east02/ckkejo2-pEbsv12c,ckkejo2-pEbsv12cFast11,DefaultPrimary,vmfs://dummy/vmjp-east02/ckkejo2-pEbsv12cFast11,tmpPure_SYSTEM_DISK
cluster,jp-east02,jp-east02-Pod02,10.193.3.250/vmjp-east02/ckkejo2-pEbsv12c,ckkejo2-pEbsv12cFast12,DefaultPrimary,vmfs://dummy/vmjp-east02/ckkejo2-pEbsv12cFast12,tmpPure_SYSTEM_DISK
cluster,jp-east02,jp-east02-Pod02,10.193.3.250/vmjp-east02/ckkejo2-pEbsv12c,ckkejo2-pEbsv12cFast13,DefaultPrimary,vmfs://dummy/vmjp-east02/ckkejo2-pEbsv12cFast13,tmpPure_SYSTEM_DISK
cluster,jp-east02,jp-east02-Pod02,10.193.3.250/vmjp-east02/ckkejo2-pEbsv12c,ckkejo2-pEbsv12cFast14,DefaultPrimary,vmfs://dummy/vmjp-east02/ckkejo2-pEbsv12cFast14,tmpPure_SYSTEM_DISK
cluster,jp-east02,jp-east02-Pod02,10.193.3.250/vmjp-east02/ckkejo2-pEbsv12c,ckkejo2-pEbsv12cFast15,DefaultPrimary,vmfs://dummy/vmjp-east02/ckkejo2-pEbsv12cFast15,tmpPure_SYSTEM_DISK
cluster,jp-east02,jp-east02-Pod02,10.193.3.250/vmjp-east02/ckkejo2-pEbsv12c,ckkejo2-pEbsv12cFast16,DefaultPrimary,vmfs://dummy/vmjp-east02/ckkejo2-pEbsv12cFast16,tmpPure_SYSTEM_DISK
cluster,jp-east02,jp-east02-Pod02,10.193.3.250/vmjp-east02/ckkejo2-pEbsv12c,ckkejo2-pEbsv12cFast17,DefaultPrimary,vmfs://dummy/vmjp-east02/ckkejo2-pEbsv12cFast17,tmpPure_SYSTEM_DISK
cluster,jp-east02,jp-east02-Pod02,10.193.3.250/vmjp-east02/ckkejo2-pEbsv12c,ckkejo2-pEbsv12cFast18,DefaultPrimary,vmfs://dummy/vmjp-east02/ckkejo2-pEbsv12cFast18,tmpPure_SYSTEM_DISK
cluster,jp-east02,jp-east02-Pod02,10.193.3.250/vmjp-east02/ckkejo2-pEbsv12c,ckkejo2-pEbsv12cFast19,DefaultPrimary,vmfs://dummy/vmjp-east02/ckkejo2-pEbsv12cFast19,tmpPure_SYSTEM_DISK
cluster,jp-east02,jp-east02-Pod02,10.193.3.250/vmjp-east02/ckkejo2-pEbsv12c,ckkejo2-pEbsv12cMiddle11,DefaultPrimary,vmfs://dummy/vmjp-east02/ckkejo2-pEbsv12cMiddle11,tmpPure_DATA_DISK
cluster,jp-east02,jp-east02-Pod02,10.193.3.250/vmjp-east02/ckkejo2-pEbsv12c,ckkejo2-pEbsv12cMiddle12,DefaultPrimary,vmfs://dummy/vmjp-east02/ckkejo2-pEbsv12cMiddle12,tmpPure_DATA_DISK
cluster,jp-east02,jp-east02-Pod02,10.193.3.250/vmjp-east02/ckkejo2-pEbsv12c,ckkejo2-pEbsv12cMiddle13,DefaultPrimary,vmfs://dummy/vmjp-east02/ckkejo2-pEbsv12cMiddle13,tmpPure_DATA_DISK
cluster,jp-east02,jp-east02-Pod02,10.193.3.250/vmjp-east02/ckkejo2-pEbsv12c,ckkejo2-pEbsv12cMiddle14,DefaultPrimary,vmfs://dummy/vmjp-east02/ckkejo2-pEbsv12cMiddle14,tmpPure_DATA_DISK
cluster,jp-east02,jp-east02-Pod02,10.193.3.250/vmjp-east02/ckkejo2-pEbsv12c,ckkejo2-pEbsv12cMiddle15,DefaultPrimary,vmfs://dummy/vmjp-east02/ckkejo2-pEbsv12cMiddle15,tmpPure_DATA_DISK
cluster,jp-east02,jp-east02-Pod02,10.193.3.250/vmjp-east02/ckkejo2-pEbsv12c,ckkejo2-pEbsv12cMiddle16,DefaultPrimary,vmfs://dummy/vmjp-east02/ckkejo2-pEbsv12cMiddle16,tmpPure_DATA_DISK
cluster,jp-east02,jp-east02-Pod02,10.193.3.250/vmjp-east02/ckkejo2-pEbsv12c,ckkejo2-pEbsv12cMiddle17,DefaultPrimary,vmfs://dummy/vmjp-east02/ckkejo2-pEbsv12cMiddle17,tmpPure_DATA_DISK
cluster,jp-east02,jp-east02-Pod02,10.193.3.250/vmjp-east02/ckkejo2-pEbsv12c,ckkejo2-pEbsv12cMiddle18,DefaultPrimary,vmfs://dummy/vmjp-east02/ckkejo2-pEbsv12cMiddle18,tmpPure_DATA_DISK
cluster,jp-east02,jp-east02-Pod02,10.193.3.250/vmjp-east02/ckkejo2-pEbsv12c,ckkejo2-pEbsv12cMiddle19,DefaultPrimary,vmfs://dummy/vmjp-east02/ckkejo2-pEbsv12cMiddle19,tmpPure_DATA_DISK
cluster,jp-east02,jp-east02-Pod02,10.193.3.250/vmjp-east02/ckkejo2-pEbsv15a,ckkejo2-pEbsv15aFast11,DefaultPrimary,vmfs://dummy/vmjp-east02/ckkejo2-pEbsv15aFast11,tmpPure_SYSTEM_DISK
cluster,jp-east02,jp-east02-Pod02,10.193.3.250/vmjp-east02/ckkejo2-pEbsv15a,ckkejo2-pEbsv15aFast12,DefaultPrimary,vmfs://dummy/vmjp-east02/ckkejo2-pEbsv15aFast12,tmpPure_SYSTEM_DISK
cluster,jp-east02,jp-east02-Pod02,10.193.3.250/vmjp-east02/ckkejo2-pEbsv15a,ckkejo2-pEbsv15aFast13,DefaultPrimary,vmfs://dummy/vmjp-east02/ckkejo2-pEbsv15aFast13,tmpPure_SYSTEM_DISK
cluster,jp-east02,jp-east02-Pod02,10.193.3.250/vmjp-east02/ckkejo2-pEbsv15a,ckkejo2-pEbsv15aFast14,DefaultPrimary,vmfs://dummy/vmjp-east02/ckkejo2-pEbsv15aFast14,tmpPure_SYSTEM_DISK
cluster,jp-east02,jp-east02-Pod02,10.193.3.250/vmjp-east02/ckkejo2-pEbsv15a,ckkejo2-pEbsv15aFast15,DefaultPrimary,vmfs://dummy/vmjp-east02/ckkejo2-pEbsv15aFast15,tmpPure_SYSTEM_DISK
cluster,jp-east02,jp-east02-Pod02,10.193.3.250/vmjp-east02/ckkejo2-pEbsv15a,ckkejo2-pEbsv15aFast16,DefaultPrimary,vmfs://dummy/vmjp-east02/ckkejo2-pEbsv15aFast16,tmpPure_SYSTEM_DISK
cluster,jp-east02,jp-east02-Pod02,10.193.3.250/vmjp-east02/ckkejo2-pEbsv15a,ckkejo2-pEbsv15aFast17,DefaultPrimary,vmfs://dummy/vmjp-east02/ckkejo2-pEbsv15aFast17,tmpPure_SYSTEM_DISK
cluster,jp-east02,jp-east02-Pod02,10.193.3.250/vmjp-east02/ckkejo2-pEbsv15a,ckkejo2-pEbsv15aFast18,DefaultPrimary,vmfs://dummy/vmjp-east02/ckkejo2-pEbsv15aFast18,tmpPure_SYSTEM_DISK
cluster,jp-east02,jp-east02-Pod02,10.193.3.250/vmjp-east02/ckkejo2-pEbsv15a,ckkejo2-pEbsv15aFast19,DefaultPrimary,vmfs://dummy/vmjp-east02/ckkejo2-pEbsv15aFast19,tmpPure_SYSTEM_DISK
cluster,jp-east02,jp-east02-Pod02,10.193.3.250/vmjp-east02/ckkejo2-pEbsv15a,ckkejo2-pEbsv15aMiddle11,DefaultPrimary,vmfs://dummy/vmjp-east02/ckkejo2-pEbsv15aMiddle11,tmpPure_DATA_DISK
cluster,jp-east02,jp-east02-Pod02,10.193.3.250/vmjp-east02/ckkejo2-pEbsv15a,ckkejo2-pEbsv15aMiddle12,DefaultPrimary,vmfs://dummy/vmjp-east02/ckkejo2-pEbsv15aMiddle12,tmpPure_DATA_DISK
cluster,jp-east02,jp-east02-Pod02,10.193.3.250/vmjp-east02/ckkejo2-pEbsv15a,ckkejo2-pEbsv15aMiddle13,DefaultPrimary,vmfs://dummy/vmjp-east02/ckkejo2-pEbsv15aMiddle13,tmpPure_DATA_DISK
cluster,jp-east02,jp-east02-Pod02,10.193.3.250/vmjp-east02/ckkejo2-pEbsv15a,ckkejo2-pEbsv15aMiddle14,DefaultPrimary,vmfs://dummy/vmjp-east02/ckkejo2-pEbsv15aMiddle14,tmpPure_DATA_DISK
cluster,jp-east02,jp-east02-Pod02,10.193.3.250/vmjp-east02/ckkejo2-pEbsv15a,ckkejo2-pEbsv15aMiddle15,DefaultPrimary,vmfs://dummy/vmjp-east02/ckkejo2-pEbsv15aMiddle15,tmpPure_DATA_DISK
cluster,jp-east02,jp-east02-Pod02,10.193.3.250/vmjp-east02/ckkejo2-pEbsv15a,ckkejo2-pEbsv15aMiddle16,DefaultPrimary,vmfs://dummy/vmjp-east02/ckkejo2-pEbsv15aMiddle16,tmpPure_DATA_DISK
cluster,jp-east02,jp-east02-Pod02,10.193.3.250/vmjp-east02/ckkejo2-pEbsv15a,ckkejo2-pEbsv15aMiddle17,DefaultPrimary,vmfs://dummy/vmjp-east02/ckkejo2-pEbsv15aMiddle17,tmpPure_DATA_DISK
cluster,jp-east02,jp-east02-Pod02,10.193.3.250/vmjp-east02/ckkejo2-pEbsv15a,ckkejo2-pEbsv15aMiddle18,DefaultPrimary,vmfs://dummy/vmjp-east02/ckkejo2-pEbsv15aMiddle18,tmpPure_DATA_DISK
cluster,jp-east02,jp-east02-Pod02,10.193.3.250/vmjp-east02/ckkejo2-pEbsv15a,ckkejo2-pEbsv15aMiddle19,DefaultPrimary,vmfs://dummy/vmjp-east02/ckkejo2-pEbsv15aMiddle19,tmpPure_DATA_DISK
