SCOPE,ZONE,POD,CLUSTER,NAME,PROVIDER,URL,TAG
cluster,jp-east02,jp-east02-Pod02,10.193.3.250/vmjp-east02/ckkejo2-pEbsv15b,ckkejo2-pEbsv15bFast11,DefaultPrimary,vmfs://dummy/vmjp-east02/ckkejo2-pEbsv15bFast11,tmpPure_SYSTEM_DISK
cluster,jp-east02,jp-east02-Pod02,10.193.3.250/vmjp-east02/ckkejo2-pEbsv15b,ckkejo2-pEbsv15bFast12,DefaultPrimary,vmfs://dummy/vmjp-east02/ckkejo2-pEbsv15bFast12,tmpPure_SYSTEM_DISK
cluster,jp-east02,jp-east02-Pod02,10.193.3.250/vmjp-east02/ckkejo2-pEbsv15b,ckkejo2-pEbsv15bFast13,DefaultPrimary,vmfs://dummy/vmjp-east02/ckkejo2-pEbsv15bFast13,tmpPure_SYSTEM_DISK
cluster,jp-east02,jp-east02-Pod02,10.193.3.250/vmjp-east02/ckkejo2-pEbsv15b,ckkejo2-pEbsv15bFast14,DefaultPrimary,vmfs://dummy/vmjp-east02/ckkejo2-pEbsv15bFast14,tmpPure_SYSTEM_DISK
cluster,jp-east02,jp-east02-Pod02,10.193.3.250/vmjp-east02/ckkejo2-pEbsv15b,ckkejo2-pEbsv15bFast15,DefaultPrimary,vmfs://dummy/vmjp-east02/ckkejo2-pEbsv15bFast15,tmpPure_SYSTEM_DISK
cluster,jp-east02,jp-east02-Pod02,10.193.3.250/vmjp-east02/ckkejo2-pEbsv15b,ckkejo2-pEbsv15bFast16,DefaultPrimary,vmfs://dummy/vmjp-east02/ckkejo2-pEbsv15bFast16,tmpPure_SYSTEM_DISK
cluster,jp-east02,jp-east02-Pod02,10.193.3.250/vmjp-east02/ckkejo2-pEbsv15b,ckkejo2-pEbsv15bFast17,DefaultPrimary,vmfs://dummy/vmjp-east02/ckkejo2-pEbsv15bFast17,tmpPure_SYSTEM_DISK
cluster,jp-east02,jp-east02-Pod02,10.193.3.250/vmjp-east02/ckkejo2-pEbsv15b,ckkejo2-pEbsv15bFast18,DefaultPrimary,vmfs://dummy/vmjp-east02/ckkejo2-pEbsv15bFast18,tmpPure_SYSTEM_DISK
cluster,jp-east02,jp-east02-Pod02,10.193.3.250/vmjp-east02/ckkejo2-pEbsv15b,ckkejo2-pEbsv15bFast19,DefaultPrimary,vmfs://dummy/vmjp-east02/ckkejo2-pEbsv15bFast19,tmpPure_SYSTEM_DISK
cluster,jp-east02,jp-east02-Pod02,10.193.3.250/vmjp-east02/ckkejo2-pEbsv15b,ckkejo2-pEbsv15bMiddle11,DefaultPrimary,vmfs://dummy/vmjp-east02/ckkejo2-pEbsv15bMiddle11,tmpPure_DATA_DISK
cluster,jp-east02,jp-east02-Pod02,10.193.3.250/vmjp-east02/ckkejo2-pEbsv15b,ckkejo2-pEbsv15bMiddle12,DefaultPrimary,vmfs://dummy/vmjp-east02/ckkejo2-pEbsv15bMiddle12,tmpPure_DATA_DISK
cluster,jp-east02,jp-east02-Pod02,10.193.3.250/vmjp-east02/ckkejo2-pEbsv15b,ckkejo2-pEbsv15bMiddle13,DefaultPrimary,vmfs://dummy/vmjp-east02/ckkejo2-pEbsv15bMiddle13,tmpPure_DATA_DISK
cluster,jp-east02,jp-east02-Pod02,10.193.3.250/vmjp-east02/ckkejo2-pEbsv15b,ckkejo2-pEbsv15bMiddle14,DefaultPrimary,vmfs://dummy/vmjp-east02/ckkejo2-pEbsv15bMiddle14,tmpPure_DATA_DISK
cluster,jp-east02,jp-east02-Pod02,10.193.3.250/vmjp-east02/ckkejo2-pEbsv15b,ckkejo2-pEbsv15bMiddle15,DefaultPrimary,vmfs://dummy/vmjp-east02/ckkejo2-pEbsv15bMiddle15,tmpPure_DATA_DISK
cluster,jp-east02,jp-east02-Pod02,10.193.3.250/vmjp-east02/ckkejo2-pEbsv15b,ckkejo2-pEbsv15bMiddle16,DefaultPrimary,vmfs://dummy/vmjp-east02/ckkejo2-pEbsv15bMiddle16,tmpPure_DATA_DISK
cluster,jp-east02,jp-east02-Pod02,10.193.3.250/vmjp-east02/ckkejo2-pEbsv15b,ckkejo2-pEbsv15bMiddle17,DefaultPrimary,vmfs://dummy/vmjp-east02/ckkejo2-pEbsv15bMiddle17,tmpPure_DATA_DISK
cluster,jp-east02,jp-east02-Pod02,10.193.3.250/vmjp-east02/ckkejo2-pEbsv15b,ckkejo2-pEbsv15bMiddle18,DefaultPrimary,vmfs://dummy/vmjp-east02/ckkejo2-pEbsv15bMiddle18,tmpPure_DATA_DISK
cluster,jp-east02,jp-east02-Pod02,10.193.3.250/vmjp-east02/ckkejo2-pEbsv15b,ckkejo2-pEbsv15bMiddle19,DefaultPrimary,vmfs://dummy/vmjp-east02/ckkejo2-pEbsv15bMiddle19,tmpPure_DATA_DISK
cluster,jp-east02,jp-east02-Pod02,10.193.3.250/vmjp-east02/ckkejo2-pEbsv15c,ckkejo2-pEbsv15cFast11,DefaultPrimary,vmfs://dummy/vmjp-east02/ckkejo2-pEbsv15cFast11,tmpPure_SYSTEM_DISK
cluster,jp-east02,jp-east02-Pod02,10.193.3.250/vmjp-east02/ckkejo2-pEbsv15c,ckkejo2-pEbsv15cFast12,DefaultPrimary,vmfs://dummy/vmjp-east02/ckkejo2-pEbsv15cFast12,tmpPure_SYSTEM_DISK
cluster,jp-east02,jp-east02-Pod02,10.193.3.250/vmjp-east02/ckkejo2-pEbsv15c,ckkejo2-pEbsv15cFast13,DefaultPrimary,vmfs://dummy/vmjp-east02/ckkejo2-pEbsv15cFast13,tmpPure_SYSTEM_DISK
cluster,jp-east02,jp-east02-Pod02,10.193.3.250/vmjp-east02/ckkejo2-pEbsv15c,ckkejo2-pEbsv15cFast14,DefaultPrimary,vmfs://dummy/vmjp-east02/ckkejo2-pEbsv15cFast14,tmpPure_SYSTEM_DISK
cluster,jp-east02,jp-east02-Pod02,10.193.3.250/vmjp-east02/ckkejo2-pEbsv15c,ckkejo2-pEbsv15cFast15,DefaultPrimary,vmfs://dummy/vmjp-east02/ckkejo2-pEbsv15cFast15,tmpPure_SYSTEM_DISK
cluster,jp-east02,jp-east02-Pod02,10.193.3.250/vmjp-east02/ckkejo2-pEbsv15c,ckkejo2-pEbsv15cFast16,DefaultPrimary,vmfs://dummy/vmjp-east02/ckkejo2-pEbsv15cFast16,tmpPure_SYSTEM_DISK
cluster,jp-east02,jp-east02-Pod02,10.193.3.250/vmjp-east02/ckkejo2-pEbsv15c,ckkejo2-pEbsv15cFast17,DefaultPrimary,vmfs://dummy/vmjp-east02/ckkejo2-pEbsv15cFast17,tmpPure_SYSTEM_DISK
cluster,jp-east02,jp-east02-Pod02,10.193.3.250/vmjp-east02/ckkejo2-pEbsv15c,ckkejo2-pEbsv15cFast18,DefaultPrimary,vmfs://dummy/vmjp-east02/ckkejo2-pEbsv15cFast18,tmpPure_SYSTEM_DISK
cluster,jp-east02,jp-east02-Pod02,10.193.3.250/vmjp-east02/ckkejo2-pEbsv15c,ckkejo2-pEbsv15cFast19,DefaultPrimary,vmfs://dummy/vmjp-east02/ckkejo2-pEbsv15cFast19,tmpPure_SYSTEM_DISK
cluster,jp-east02,jp-east02-Pod02,10.193.3.250/vmjp-east02/ckkejo2-pEbsv15c,ckkejo2-pEbsv15cMiddle11,DefaultPrimary,vmfs://dummy/vmjp-east02/ckkejo2-pEbsv15cMiddle11,tmpPure_DATA_DISK
cluster,jp-east02,jp-east02-Pod02,10.193.3.250/vmjp-east02/ckkejo2-pEbsv15c,ckkejo2-pEbsv15cMiddle12,DefaultPrimary,vmfs://dummy/vmjp-east02/ckkejo2-pEbsv15cMiddle12,tmpPure_DATA_DISK
cluster,jp-east02,jp-east02-Pod02,10.193.3.250/vmjp-east02/ckkejo2-pEbsv15c,ckkejo2-pEbsv15cMiddle13,DefaultPrimary,vmfs://dummy/vmjp-east02/ckkejo2-pEbsv15cMiddle13,tmpPure_DATA_DISK
cluster,jp-east02,jp-east02-Pod02,10.193.3.250/vmjp-east02/ckkejo2-pEbsv15c,ckkejo2-pEbsv15cMiddle14,DefaultPrimary,vmfs://dummy/vmjp-east02/ckkejo2-pEbsv15cMiddle14,tmpPure_DATA_DISK
cluster,jp-east02,jp-east02-Pod02,10.193.3.250/vmjp-east02/ckkejo2-pEbsv15c,ckkejo2-pEbsv15cMiddle15,DefaultPrimary,vmfs://dummy/vmjp-east02/ckkejo2-pEbsv15cMiddle15,tmpPure_DATA_DISK
cluster,jp-east02,jp-east02-Pod02,10.193.3.250/vmjp-east02/ckkejo2-pEbsv15c,ckkejo2-pEbsv15cMiddle16,DefaultPrimary,vmfs://dummy/vmjp-east02/ckkejo2-pEbsv15cMiddle16,tmpPure_DATA_DISK
cluster,jp-east02,jp-east02-Pod02,10.193.3.250/vmjp-east02/ckkejo2-pEbsv15c,ckkejo2-pEbsv15cMiddle17,DefaultPrimary,vmfs://dummy/vmjp-east02/ckkejo2-pEbsv15cMiddle17,tmpPure_DATA_DISK
cluster,jp-east02,jp-east02-Pod02,10.193.3.250/vmjp-east02/ckkejo2-pEbsv15c,ckkejo2-pEbsv15cMiddle18,DefaultPrimary,vmfs://dummy/vmjp-east02/ckkejo2-pEbsv15cMiddle18,tmpPure_DATA_DISK
cluster,jp-east02,jp-east02-Pod02,10.193.3.250/vmjp-east02/ckkejo2-pEbsv15c,ckkejo2-pEbsv15cMiddle19,DefaultPrimary,vmfs://dummy/vmjp-east02/ckkejo2-pEbsv15cMiddle19,tmpPure_DATA_DISK
