SCOPE,ZONE,POD,CLUSTER,NAME,PROVIDER,URL,TAG
cluster,Tokyo01,Tokyo01-Pod02,10.190.0.227/vmtokyo01/ckktky4-pEbsv36a,ckktky4-pEbsv36aFast11,DefaultPrimary,vmfs://dummy/vmtokyo01/ckktky4-pEbsv36aFast11,tmpPure_SYSTEM_DISK
cluster,Tokyo01,Tokyo01-Pod02,10.190.0.227/vmtokyo01/ckktky4-pEbsv36a,ckktky4-pEbsv36aFast12,DefaultPrimary,vmfs://dummy/vmtokyo01/ckktky4-pEbsv36aFast12,tmpPure_SYSTEM_DISK
cluster,Tokyo01,Tokyo01-Pod02,10.190.0.227/vmtokyo01/ckktky4-pEbsv36a,ckktky4-pEbsv36aFast13,DefaultPrimary,vmfs://dummy/vmtokyo01/ckktky4-pEbsv36aFast13,tmpPure_SYSTEM_DISK
cluster,Tokyo01,Tokyo01-Pod02,10.190.0.227/vmtokyo01/ckktky4-pEbsv36a,ckktky4-pEbsv36aFast14,DefaultPrimary,vmfs://dummy/vmtokyo01/ckktky4-pEbsv36aFast14,tmpPure_SYSTEM_DISK
cluster,Tokyo01,Tokyo01-Pod02,10.190.0.227/vmtokyo01/ckktky4-pEbsv36a,ckktky4-pEbsv36aFast15,DefaultPrimary,vmfs://dummy/vmtokyo01/ckktky4-pEbsv36aFast15,tmpPure_SYSTEM_DISK
cluster,Tokyo01,Tokyo01-Pod02,10.190.0.227/vmtokyo01/ckktky4-pEbsv36a,ckktky4-pEbsv36aFast16,DefaultPrimary,vmfs://dummy/vmtokyo01/ckktky4-pEbsv36aFast16,tmpPure_SYSTEM_DISK
cluster,Tokyo01,Tokyo01-Pod02,10.190.0.227/vmtokyo01/ckktky4-pEbsv36a,ckktky4-pEbsv36aFast17,DefaultPrimary,vmfs://dummy/vmtokyo01/ckktky4-pEbsv36aFast17,tmpPure_SYSTEM_DISK
cluster,Tokyo01,Tokyo01-Pod02,10.190.0.227/vmtokyo01/ckktky4-pEbsv36a,ckktky4-pEbsv36aFast18,DefaultPrimary,vmfs://dummy/vmtokyo01/ckktky4-pEbsv36aFast18,tmpPure_SYSTEM_DISK
cluster,Tokyo01,Tokyo01-Pod02,10.190.0.227/vmtokyo01/ckktky4-pEbsv36a,ckktky4-pEbsv36aFast19,DefaultPrimary,vmfs://dummy/vmtokyo01/ckktky4-pEbsv36aFast19,tmpPure_SYSTEM_DISK
cluster,Tokyo01,Tokyo01-Pod02,10.190.0.227/vmtokyo01/ckktky4-pEbsv36a,ckktky4-pEbsv36aMiddle11,DefaultPrimary,vmfs://dummy/vmtokyo01/ckktky4-pEbsv36aMiddle11,tmpPure_DATA_DISK
cluster,Tokyo01,Tokyo01-Pod02,10.190.0.227/vmtokyo01/ckktky4-pEbsv36a,ckktky4-pEbsv36aMiddle12,DefaultPrimary,vmfs://dummy/vmtokyo01/ckktky4-pEbsv36aMiddle12,tmpPure_DATA_DISK
cluster,Tokyo01,Tokyo01-Pod02,10.190.0.227/vmtokyo01/ckktky4-pEbsv36a,ckktky4-pEbsv36aMiddle13,DefaultPrimary,vmfs://dummy/vmtokyo01/ckktky4-pEbsv36aMiddle13,tmpPure_DATA_DISK
cluster,Tokyo01,Tokyo01-Pod02,10.190.0.227/vmtokyo01/ckktky4-pEbsv36a,ckktky4-pEbsv36aMiddle14,DefaultPrimary,vmfs://dummy/vmtokyo01/ckktky4-pEbsv36aMiddle14,tmpPure_DATA_DISK
cluster,Tokyo01,Tokyo01-Pod02,10.190.0.227/vmtokyo01/ckktky4-pEbsv36a,ckktky4-pEbsv36aMiddle15,DefaultPrimary,vmfs://dummy/vmtokyo01/ckktky4-pEbsv36aMiddle15,tmpPure_DATA_DISK
cluster,Tokyo01,Tokyo01-Pod02,10.190.0.227/vmtokyo01/ckktky4-pEbsv36a,ckktky4-pEbsv36aMiddle16,DefaultPrimary,vmfs://dummy/vmtokyo01/ckktky4-pEbsv36aMiddle16,tmpPure_DATA_DISK
cluster,Tokyo01,Tokyo01-Pod02,10.190.0.227/vmtokyo01/ckktky4-pEbsv36a,ckktky4-pEbsv36aMiddle17,DefaultPrimary,vmfs://dummy/vmtokyo01/ckktky4-pEbsv36aMiddle17,tmpPure_DATA_DISK
cluster,Tokyo01,Tokyo01-Pod02,10.190.0.227/vmtokyo01/ckktky4-pEbsv36a,ckktky4-pEbsv36aMiddle18,DefaultPrimary,vmfs://dummy/vmtokyo01/ckktky4-pEbsv36aMiddle18,tmpPure_DATA_DISK
cluster,Tokyo01,Tokyo01-Pod02,10.190.0.227/vmtokyo01/ckktky4-pEbsv36a,ckktky4-pEbsv36aMiddle19,DefaultPrimary,vmfs://dummy/vmtokyo01/ckktky4-pEbsv36aMiddle19,tmpPure_DATA_DISK
cluster,Tokyo01,Tokyo01-Pod02,10.190.0.227/vmtokyo01/ckktky4-pEbsv36b,ckktky4-pEbsv36bFast11,DefaultPrimary,vmfs://dummy/vmtokyo01/ckktky4-pEbsv36bFast11,tmpPure_SYSTEM_DISK
cluster,Tokyo01,Tokyo01-Pod02,10.190.0.227/vmtokyo01/ckktky4-pEbsv36b,ckktky4-pEbsv36bFast12,DefaultPrimary,vmfs://dummy/vmtokyo01/ckktky4-pEbsv36bFast12,tmpPure_SYSTEM_DISK
cluster,Tokyo01,Tokyo01-Pod02,10.190.0.227/vmtokyo01/ckktky4-pEbsv36b,ckktky4-pEbsv36bFast13,DefaultPrimary,vmfs://dummy/vmtokyo01/ckktky4-pEbsv36bFast13,tmpPure_SYSTEM_DISK
cluster,Tokyo01,Tokyo01-Pod02,10.190.0.227/vmtokyo01/ckktky4-pEbsv36b,ckktky4-pEbsv36bFast14,DefaultPrimary,vmfs://dummy/vmtokyo01/ckktky4-pEbsv36bFast14,tmpPure_SYSTEM_DISK
cluster,Tokyo01,Tokyo01-Pod02,10.190.0.227/vmtokyo01/ckktky4-pEbsv36b,ckktky4-pEbsv36bFast15,DefaultPrimary,vmfs://dummy/vmtokyo01/ckktky4-pEbsv36bFast15,tmpPure_SYSTEM_DISK
cluster,Tokyo01,Tokyo01-Pod02,10.190.0.227/vmtokyo01/ckktky4-pEbsv36b,ckktky4-pEbsv36bFast16,DefaultPrimary,vmfs://dummy/vmtokyo01/ckktky4-pEbsv36bFast16,tmpPure_SYSTEM_DISK
cluster,Tokyo01,Tokyo01-Pod02,10.190.0.227/vmtokyo01/ckktky4-pEbsv36b,ckktky4-pEbsv36bFast17,DefaultPrimary,vmfs://dummy/vmtokyo01/ckktky4-pEbsv36bFast17,tmpPure_SYSTEM_DISK
cluster,Tokyo01,Tokyo01-Pod02,10.190.0.227/vmtokyo01/ckktky4-pEbsv36b,ckktky4-pEbsv36bFast18,DefaultPrimary,vmfs://dummy/vmtokyo01/ckktky4-pEbsv36bFast18,tmpPure_SYSTEM_DISK
cluster,Tokyo01,Tokyo01-Pod02,10.190.0.227/vmtokyo01/ckktky4-pEbsv36b,ckktky4-pEbsv36bFast19,DefaultPrimary,vmfs://dummy/vmtokyo01/ckktky4-pEbsv36bFast19,tmpPure_SYSTEM_DISK
cluster,Tokyo01,Tokyo01-Pod02,10.190.0.227/vmtokyo01/ckktky4-pEbsv36b,ckktky4-pEbsv36bMiddle11,DefaultPrimary,vmfs://dummy/vmtokyo01/ckktky4-pEbsv36bMiddle11,tmpPure_DATA_DISK
cluster,Tokyo01,Tokyo01-Pod02,10.190.0.227/vmtokyo01/ckktky4-pEbsv36b,ckktky4-pEbsv36bMiddle12,DefaultPrimary,vmfs://dummy/vmtokyo01/ckktky4-pEbsv36bMiddle12,tmpPure_DATA_DISK
cluster,Tokyo01,Tokyo01-Pod02,10.190.0.227/vmtokyo01/ckktky4-pEbsv36b,ckktky4-pEbsv36bMiddle13,DefaultPrimary,vmfs://dummy/vmtokyo01/ckktky4-pEbsv36bMiddle13,tmpPure_DATA_DISK
cluster,Tokyo01,Tokyo01-Pod02,10.190.0.227/vmtokyo01/ckktky4-pEbsv36b,ckktky4-pEbsv36bMiddle14,DefaultPrimary,vmfs://dummy/vmtokyo01/ckktky4-pEbsv36bMiddle14,tmpPure_DATA_DISK
cluster,Tokyo01,Tokyo01-Pod02,10.190.0.227/vmtokyo01/ckktky4-pEbsv36b,ckktky4-pEbsv36bMiddle15,DefaultPrimary,vmfs://dummy/vmtokyo01/ckktky4-pEbsv36bMiddle15,tmpPure_DATA_DISK
cluster,Tokyo01,Tokyo01-Pod02,10.190.0.227/vmtokyo01/ckktky4-pEbsv36b,ckktky4-pEbsv36bMiddle16,DefaultPrimary,vmfs://dummy/vmtokyo01/ckktky4-pEbsv36bMiddle16,tmpPure_DATA_DISK
cluster,Tokyo01,Tokyo01-Pod02,10.190.0.227/vmtokyo01/ckktky4-pEbsv36b,ckktky4-pEbsv36bMiddle17,DefaultPrimary,vmfs://dummy/vmtokyo01/ckktky4-pEbsv36bMiddle17,tmpPure_DATA_DISK
cluster,Tokyo01,Tokyo01-Pod02,10.190.0.227/vmtokyo01/ckktky4-pEbsv36b,ckktky4-pEbsv36bMiddle18,DefaultPrimary,vmfs://dummy/vmtokyo01/ckktky4-pEbsv36bMiddle18,tmpPure_DATA_DISK
cluster,Tokyo01,Tokyo01-Pod02,10.190.0.227/vmtokyo01/ckktky4-pEbsv36b,ckktky4-pEbsv36bMiddle19,DefaultPrimary,vmfs://dummy/vmtokyo01/ckktky4-pEbsv36bMiddle19,tmpPure_DATA_DISK
